<?xml version="1.0" encoding="utf-8"?>
<!-- Generator: Adobe Illustrator 19.2.1, SVG Export Plug-In . SVG Version: 6.00 Build 0)  -->
<!DOCTYPE svg PUBLIC "-//W3C//DTD SVG 1.1//EN" "http://www.w3.org/Graphics/SVG/1.1/DTD/svg11.dtd">
<svg version="1.1" id="Layer_1" xmlns="http://www.w3.org/2000/svg" xmlns:xlink="http://www.w3.org/1999/xlink" x="0px" y="0px"
	 viewBox="0 0 24 24" style="enable-background:new 0 0 24 24;" xml:space="preserve">
<path d="M10.7,4.3c0.4,0.4,0.4,1,0,1.4L5.4,11H21c0.6,0,1,0.4,1,1s-0.4,1-1,1H5.4l5.3,5.3c0.4,0.4,0.4,1,0,1.4s-1,0.4-1.4,0l-7-7
	c-0.1-0.1-0.2-0.2-0.2-0.3C2,12.3,2,12.1,2,12s0-0.3,0.1-0.4c0.1-0.1,0.1-0.2,0.2-0.3l7-7C9.7,3.9,10.3,3.9,10.7,4.3z"/>
</svg>
