<?xml version="1.0" encoding="utf-8"?>
<svg version="1.1" id="Layer_1" xmlns="http://www.w3.org/2000/svg" x="0px" y="0px"
	 viewBox="0 0 24 24" enable-background="new 0 0 24 24" xml:space="preserve">
<path d="M20,22h-8C6.49,22,2,17.51,2,12S6.49,2,12,2s10,4.49,10,10c0,2.16-0.71,4.27-2,5.99V22z M12,4c-4.41,0-8,3.59-8,8
	s3.59,8,8,8h6v-2.7l0.22-0.28C19.38,15.58,20,13.85,20,12C20,7.59,16.41,4,12,4z"/>
<path d="M16,9.75H8.04C7.63,9.75,7.29,9.41,7.29,9s0.34-0.75,0.75-0.75H16c0.41,0,0.75,0.34,0.75,0.75S16.41,9.75,16,9.75z"/>
<path d="M16,12.75H8.04c-0.41,0-0.75-0.34-0.75-0.75s0.34-0.75,0.75-0.75H16c0.41,0,0.75,0.34,0.75,0.75S16.41,12.75,16,12.75z"/>
<path d="M16,15.75H8.04c-0.41,0-0.75-0.34-0.75-0.75s0.34-0.75,0.75-0.75H16c0.41,0,0.75,0.34,0.75,0.75S16.41,15.75,16,15.75z"/>
</svg>
