<?xml version="1.0" encoding="UTF-8" standalone="no"?>
<svg id="Layer_1" style="enable-background:new 0 0 24 24" xmlns="http://www.w3.org/2000/svg" xml:space="preserve" viewBox="0 0 24 24" version="1.1" y="0px" x="0px" xmlns:xlink="http://www.w3.org/1999/xlink">
<path d="m19.1 17.2v1.3h1.5c0.2 0 0.4 0.2 0.4 0.4s-0.2 0.4-0.4 0.4h-1.5v1.3c0 0.4-0.3 0.7-0.7 0.7h-3.5c-0.4 0-0.7-0.3-0.7-0.7v-1.3h-10.8c-0.2 0-0.4-0.2-0.4-0.4s0.2-0.4 0.4-0.4h10.8v-1.3c0-0.4 0.3-0.7 0.7-0.7h3.5c0.4-0.1 0.7 0.3 0.7 0.7zm1.5-12.6c0.2 0 0.4 0.2 0.4 0.4s-0.2 0.4-0.4 0.4h-6.2v1.3c0 0.4-0.3 0.7-0.7 0.7h-3.5c-0.4 0-0.7-0.3-0.7-0.7v-1.2h-6.1c-0.2 0-0.4-0.2-0.4-0.4s0.2-0.4 0.4-0.4h6.2v-1.4c0-0.4 0.3-0.7 0.7-0.7h3.5c0.4 0 0.7 0.3 0.7 0.7v1.3h6.1zm0 7c0.2 0 0.4 0.2 0.4 0.4s-0.2 0.4-0.4 0.4h-10.8v1.3c0 0.4-0.3 0.7-0.7 0.7h-3.5c-0.4 0-0.7-0.3-0.7-0.7v-1.3h-1.5c-0.2 0-0.4-0.2-0.4-0.4s0.2-0.4 0.4-0.4h1.5v-1.3c0-0.4 0.3-0.7 0.7-0.7h3.5c0.4 0 0.7 0.3 0.7 0.7v1.3h10.8zm-7.6-5.5v-2h-2v2.1l2-0.1zm-4.6 6.9v-2h-2v2h2zm9.2 7v-2.1h-2v2.1h2z"/>
</svg>
