<?xml version="1.0" encoding="utf-8"?>
<svg version="1.1" id="Layer_1" xmlns="http://www.w3.org/2000/svg" xmlns:xlink="http://www.w3.org/1999/xlink" x="0px" y="0px"
	 viewBox="0 0 24 24"  enable-background="new 0 0 24 24" xml:space="preserve">
<path d="M19,2h-5c-0.6,0-1,0.4-1,1v18c0,0.6,0.4,1,1,1h5c0.6,0,1-0.4,1-1V3C20,2.4,19.6,2,19,2z M18,20h-3v-1h1.5
	c0.3,0,0.5-0.2,0.5-0.5S16.8,18,16.5,18H15v-2h0.5c0.3,0,0.5-0.2,0.5-0.5S15.8,15,15.5,15H15v-2h1.5c0.3,0,0.5-0.2,0.5-0.5
	S16.8,12,16.5,12H15v-2h0.5c0.3,0,0.5-0.2,0.5-0.5S15.8,9,15.5,9H15V7h1.5C16.8,7,17,6.8,17,6.5S16.8,6,16.5,6H15V4h3V20z M11,3
	c0-0.6-0.4-1-1-1H5C4.4,2,4,2.4,4,3v15c0,0.2,0.1,0.5,0.2,0.6l0,0l3.3,3.9l3.3-3.9l0,0c0.1-0.2,0.2-0.4,0.2-0.6V3z M6,4h3v1.8H6V4z
	 M9,7.2V17H8V7.2H9z M6,7.2h1V17H6V7.2z M8.8,19.5H6.2L5,18h5L8.8,19.5z"/>
</svg>
